/data/hnl/EXOT_29/data17_13TeV.00000000.debugrec_hlt.deriv.DAOD_EXOT29.g54_r12446_r12447_p4431_p4491_tid26205343_00/DAOD_EXOT29.26205343._000002.pool.root.1
/data/hnl/EXOT_29/data17_13TeV.00000000.debugrec_hlt.deriv.DAOD_EXOT29.g54_r12446_r12447_p4431_p4491_tid26205343_00/DAOD_EXOT29.26205343._000003.pool.root.1
/data/hnl/EXOT_29/data17_13TeV.00000000.debugrec_hlt.deriv.DAOD_EXOT29.g54_r12446_r12447_p4431_p4491_tid26205343_00/DAOD_EXOT29.26205343._000004.pool.root.1
