/data/hnl/ttbar/user.rnewhous.mc16_13TeV.410470.PhPy8EG_A14_ttbar_hdamp258p75_nonallhad.EXOT29.r11916.v1_EXT0/user.rnewhous.25476675.EXT0._000001.DAOD_EXOT29.output.pool.root
/data/hnl/ttbar/user.rnewhous.mc16_13TeV.410470.PhPy8EG_A14_ttbar_hdamp258p75_nonallhad.EXOT29.r11916.v1_EXT0/user.rnewhous.25476675.EXT0._000002.DAOD_EXOT29.output.pool.root
/data/hnl/ttbar/user.rnewhous.mc16_13TeV.410470.PhPy8EG_A14_ttbar_hdamp258p75_nonallhad.EXOT29.r11916.v1_EXT0/user.rnewhous.25476675.EXT0._000003.DAOD_EXOT29.output.pool.root
/data/hnl/ttbar/user.rnewhous.mc16_13TeV.410470.PhPy8EG_A14_ttbar_hdamp258p75_nonallhad.EXOT29.r11916.v1_EXT0/user.rnewhous.25476675.EXT0._000004.DAOD_EXOT29.output.pool.root
/data/hnl/ttbar/user.rnewhous.mc16_13TeV.410470.PhPy8EG_A14_ttbar_hdamp258p75_nonallhad.EXOT29.r11916.v1_EXT0/user.rnewhous.25476675.EXT0._000005.DAOD_EXOT29.output.pool.root
/data/hnl/ttbar/user.rnewhous.mc16_13TeV.410470.PhPy8EG_A14_ttbar_hdamp258p75_nonallhad.EXOT29.r11916.v1_EXT0/user.rnewhous.25476675.EXT0._000006.DAOD_EXOT29.output.pool.root
/data/hnl/ttbar/user.rnewhous.mc16_13TeV.410470.PhPy8EG_A14_ttbar_hdamp258p75_nonallhad.EXOT29.r11916.v1_EXT0/user.rnewhous.25476675.EXT0._000007.DAOD_EXOT29.output.pool.root
/data/hnl/ttbar/user.rnewhous.mc16_13TeV.410470.PhPy8EG_A14_ttbar_hdamp258p75_nonallhad.EXOT29.r11916.v1_EXT0/user.rnewhous.25476675.EXT0._000008.DAOD_EXOT29.output.pool.root
/data/hnl/ttbar/user.rnewhous.mc16_13TeV.410470.PhPy8EG_A14_ttbar_hdamp258p75_nonallhad.EXOT29.r11916.v1_EXT0/user.rnewhous.25476675.EXT0._000009.DAOD_EXOT29.output.pool.root
/data/hnl/ttbar/user.rnewhous.mc16_13TeV.410470.PhPy8EG_A14_ttbar_hdamp258p75_nonallhad.EXOT29.r11916.v1_EXT0/user.rnewhous.25476675.EXT0._000010.DAOD_EXOT29.output.pool.root
/data/hnl/ttbar/user.rnewhous.mc16_13TeV.410470.PhPy8EG_A14_ttbar_hdamp258p75_nonallhad.EXOT29.r11916.v1_EXT0/user.rnewhous.25476675.EXT0._000011.DAOD_EXOT29.output.pool.root
/data/hnl/ttbar/user.rnewhous.mc16_13TeV.410470.PhPy8EG_A14_ttbar_hdamp258p75_nonallhad.EXOT29.r11916.v1_EXT0/user.rnewhous.25476675.EXT0._000012.DAOD_EXOT29.output.pool.root
/data/hnl/ttbar/user.rnewhous.mc16_13TeV.410470.PhPy8EG_A14_ttbar_hdamp258p75_nonallhad.EXOT29.r11916.v1_EXT0/user.rnewhous.25476675.EXT0._000013.DAOD_EXOT29.output.pool.root
/data/hnl/ttbar/user.rnewhous.mc16_13TeV.410470.PhPy8EG_A14_ttbar_hdamp258p75_nonallhad.EXOT29.r11916.v1_EXT0/user.rnewhous.25476675.EXT0._000014.DAOD_EXOT29.output.pool.root
/data/hnl/ttbar/user.rnewhous.mc16_13TeV.410470.PhPy8EG_A14_ttbar_hdamp258p75_nonallhad.EXOT29.r11916.v1_EXT0/user.rnewhous.25476675.EXT0._000015.DAOD_EXOT29.output.pool.root
/data/hnl/ttbar/user.rnewhous.mc16_13TeV.410470.PhPy8EG_A14_ttbar_hdamp258p75_nonallhad.EXOT29.r11916.v1_EXT0/user.rnewhous.25476675.EXT0._000016.DAOD_EXOT29.output.pool.root
/data/hnl/ttbar/user.rnewhous.mc16_13TeV.410470.PhPy8EG_A14_ttbar_hdamp258p75_nonallhad.EXOT29.r11916.v1_EXT0/user.rnewhous.25476675.EXT0._000017.DAOD_EXOT29.output.pool.root
/data/hnl/ttbar/user.rnewhous.mc16_13TeV.410470.PhPy8EG_A14_ttbar_hdamp258p75_nonallhad.EXOT29.r11916.v1_EXT0/user.rnewhous.25476675.EXT0._000018.DAOD_EXOT29.output.pool.root
/data/hnl/ttbar/user.rnewhous.mc16_13TeV.410470.PhPy8EG_A14_ttbar_hdamp258p75_nonallhad.EXOT29.r11916.v1_EXT0/user.rnewhous.25476675.EXT0._000019.DAOD_EXOT29.output.pool.root
/data/hnl/ttbar/user.rnewhous.mc16_13TeV.410470.PhPy8EG_A14_ttbar_hdamp258p75_nonallhad.EXOT29.r11916.v1_EXT0/user.rnewhous.25476675.EXT0._000020.DAOD_EXOT29.output.pool.root
/data/hnl/ttbar/user.rnewhous.mc16_13TeV.410470.PhPy8EG_A14_ttbar_hdamp258p75_nonallhad.EXOT29.r11916.v1_EXT0/user.rnewhous.25476675.EXT0._000021.DAOD_EXOT29.output.pool.root
/data/hnl/ttbar/user.rnewhous.mc16_13TeV.410470.PhPy8EG_A14_ttbar_hdamp258p75_nonallhad.EXOT29.r11916.v1_EXT0/user.rnewhous.25476675.EXT0._000022.DAOD_EXOT29.output.pool.root
/data/hnl/ttbar/user.rnewhous.mc16_13TeV.410470.PhPy8EG_A14_ttbar_hdamp258p75_nonallhad.EXOT29.r11916.v1_EXT0/user.rnewhous.25476675.EXT0._000023.DAOD_EXOT29.output.pool.root
/data/hnl/ttbar/user.rnewhous.mc16_13TeV.410470.PhPy8EG_A14_ttbar_hdamp258p75_nonallhad.EXOT29.r11916.v1_EXT0/user.rnewhous.25476675.EXT0._000024.DAOD_EXOT29.output.pool.root
/data/hnl/ttbar/user.rnewhous.mc16_13TeV.410470.PhPy8EG_A14_ttbar_hdamp258p75_nonallhad.EXOT29.r11916.v1_EXT0/user.rnewhous.25476675.EXT0._000025.DAOD_EXOT29.output.pool.root
/data/hnl/ttbar/user.rnewhous.mc16_13TeV.410470.PhPy8EG_A14_ttbar_hdamp258p75_nonallhad.EXOT29.r11916.v1_EXT0/user.rnewhous.25476675.EXT0._000026.DAOD_EXOT29.output.pool.root
/data/hnl/ttbar/user.rnewhous.mc16_13TeV.410470.PhPy8EG_A14_ttbar_hdamp258p75_nonallhad.EXOT29.r11916.v1_EXT0/user.rnewhous.25476675.EXT0._000027.DAOD_EXOT29.output.pool.root
/data/hnl/ttbar/user.rnewhous.mc16_13TeV.410470.PhPy8EG_A14_ttbar_hdamp258p75_nonallhad.EXOT29.r11916.v1_EXT0/user.rnewhous.25476675.EXT0._000028.DAOD_EXOT29.output.pool.root
/data/hnl/ttbar/user.rnewhous.mc16_13TeV.410470.PhPy8EG_A14_ttbar_hdamp258p75_nonallhad.EXOT29.r11916.v1_EXT0/user.rnewhous.25476675.EXT0._000029.DAOD_EXOT29.output.pool.root
/data/hnl/ttbar/user.rnewhous.mc16_13TeV.410470.PhPy8EG_A14_ttbar_hdamp258p75_nonallhad.EXOT29.r11916.v1_EXT0/user.rnewhous.25476675.EXT0._000030.DAOD_EXOT29.output.pool.root
/data/hnl/ttbar/user.rnewhous.mc16_13TeV.410470.PhPy8EG_A14_ttbar_hdamp258p75_nonallhad.EXOT29.r11916.v1_EXT0/user.rnewhous.25476675.EXT0._000031.DAOD_EXOT29.output.pool.root
/data/hnl/ttbar/user.rnewhous.mc16_13TeV.410470.PhPy8EG_A14_ttbar_hdamp258p75_nonallhad.EXOT29.r11916.v1_EXT0/user.rnewhous.25476675.EXT0._000032.DAOD_EXOT29.output.pool.root
/data/hnl/ttbar/user.rnewhous.mc16_13TeV.410470.PhPy8EG_A14_ttbar_hdamp258p75_nonallhad.EXOT29.r11916.v1_EXT0/user.rnewhous.25476675.EXT0._000033.DAOD_EXOT29.output.pool.root
/data/hnl/ttbar/user.rnewhous.mc16_13TeV.410470.PhPy8EG_A14_ttbar_hdamp258p75_nonallhad.EXOT29.r11916.v1_EXT0/user.rnewhous.25476675.EXT0._000034.DAOD_EXOT29.output.pool.root
/data/hnl/ttbar/user.rnewhous.mc16_13TeV.410470.PhPy8EG_A14_ttbar_hdamp258p75_nonallhad.EXOT29.r11916.v1_EXT0/user.rnewhous.25476675.EXT0._000035.DAOD_EXOT29.output.pool.root
/data/hnl/ttbar/user.rnewhous.mc16_13TeV.410470.PhPy8EG_A14_ttbar_hdamp258p75_nonallhad.EXOT29.r11916.v1_EXT0/user.rnewhous.25476675.EXT0._000036.DAOD_EXOT29.output.pool.root
/data/hnl/ttbar/user.rnewhous.mc16_13TeV.410470.PhPy8EG_A14_ttbar_hdamp258p75_nonallhad.EXOT29.r11916.v1_EXT0/user.rnewhous.25476675.EXT0._000037.DAOD_EXOT29.output.pool.root
/data/hnl/ttbar/user.rnewhous.mc16_13TeV.410470.PhPy8EG_A14_ttbar_hdamp258p75_nonallhad.EXOT29.r11916.v1_EXT0/user.rnewhous.25476675.EXT0._000038.DAOD_EXOT29.output.pool.root
/data/hnl/ttbar/user.rnewhous.mc16_13TeV.410470.PhPy8EG_A14_ttbar_hdamp258p75_nonallhad.EXOT29.r11916.v1_EXT0/user.rnewhous.25476675.EXT0._000039.DAOD_EXOT29.output.pool.root
/data/hnl/ttbar/user.rnewhous.mc16_13TeV.410470.PhPy8EG_A14_ttbar_hdamp258p75_nonallhad.EXOT29.r11916.v1_EXT0/user.rnewhous.25476675.EXT0._000040.DAOD_EXOT29.output.pool.root
/data/hnl/ttbar/user.rnewhous.mc16_13TeV.410470.PhPy8EG_A14_ttbar_hdamp258p75_nonallhad.EXOT29.r11916.v1_EXT0/user.rnewhous.25476675.EXT0._000041.DAOD_EXOT29.output.pool.root
/data/hnl/ttbar/user.rnewhous.mc16_13TeV.410470.PhPy8EG_A14_ttbar_hdamp258p75_nonallhad.EXOT29.r11916.v1_EXT0/user.rnewhous.25476675.EXT0._000042.DAOD_EXOT29.output.pool.root
/data/hnl/ttbar/user.rnewhous.mc16_13TeV.410470.PhPy8EG_A14_ttbar_hdamp258p75_nonallhad.EXOT29.r11916.v1_EXT0/user.rnewhous.25476675.EXT0._000043.DAOD_EXOT29.output.pool.root
/data/hnl/ttbar/user.rnewhous.mc16_13TeV.410470.PhPy8EG_A14_ttbar_hdamp258p75_nonallhad.EXOT29.r11916.v1_EXT0/user.rnewhous.25476675.EXT0._000044.DAOD_EXOT29.output.pool.root
/data/hnl/ttbar/user.rnewhous.mc16_13TeV.410470.PhPy8EG_A14_ttbar_hdamp258p75_nonallhad.EXOT29.r11916.v1_EXT0/user.rnewhous.25476675.EXT0._000045.DAOD_EXOT29.output.pool.root
/data/hnl/ttbar/user.rnewhous.mc16_13TeV.410470.PhPy8EG_A14_ttbar_hdamp258p75_nonallhad.EXOT29.r11916.v1_EXT0/user.rnewhous.25476675.EXT0._000046.DAOD_EXOT29.output.pool.root
/data/hnl/ttbar/user.rnewhous.mc16_13TeV.410470.PhPy8EG_A14_ttbar_hdamp258p75_nonallhad.EXOT29.r11916.v1_EXT0/user.rnewhous.25476675.EXT0._000047.DAOD_EXOT29.output.pool.root
/data/hnl/ttbar/user.rnewhous.mc16_13TeV.410470.PhPy8EG_A14_ttbar_hdamp258p75_nonallhad.EXOT29.r11916.v1_EXT0/user.rnewhous.25476675.EXT0._000048.DAOD_EXOT29.output.pool.root
/data/hnl/ttbar/user.rnewhous.mc16_13TeV.410470.PhPy8EG_A14_ttbar_hdamp258p75_nonallhad.EXOT29.r11916.v1_EXT0/user.rnewhous.25476675.EXT0._000049.DAOD_EXOT29.output.pool.root
/data/hnl/ttbar/user.rnewhous.mc16_13TeV.410470.PhPy8EG_A14_ttbar_hdamp258p75_nonallhad.EXOT29.r11916.v1_EXT0/user.rnewhous.25476675.EXT0._000050.DAOD_EXOT29.output.pool.root
