/data/newhouse/HNL/EXOT29/mc16_13TeV.311624.Pythia8EvtGen_A14NNPDF23LO_WmuHNL50_5G_lt10dd_el.deriv.DAOD_EXOT29.e7422_e5984_a875_r11916_r11748_p4482/DAOD_EXOT29.24948000._000013.pool.root.1
/data/newhouse/HNL/EXOT29/mc16_13TeV.311624.Pythia8EvtGen_A14NNPDF23LO_WmuHNL50_5G_lt10dd_el.deriv.DAOD_EXOT29.e7422_e5984_a875_r11916_r11748_p4482/DAOD_EXOT29.24948000._000014.pool.root.1
/data/newhouse/HNL/EXOT29/mc16_13TeV.311624.Pythia8EvtGen_A14NNPDF23LO_WmuHNL50_5G_lt10dd_el.deriv.DAOD_EXOT29.e7422_e5984_a875_r11916_r11748_p4482/DAOD_EXOT29.24948000._000015.pool.root.1
